^E:\RÁC\C++\BFS2\BFS2\PCH.CPP
E:\RáC\C++\BFS2\BFS2\DEBUG\BFS2.PCH
E:\RáC\C++\BFS2\BFS2\DEBUG\VC141.PDB
E:\RáC\C++\BFS2\BFS2\DEBUG\VC141.IDB
E:\RáC\C++\BFS2\BFS2\DEBUG\PCH.OBJ
^E:\RÁC\C++\BFS2\BFS2\BFS2.CPP
E:\RáC\C++\BFS2\BFS2\DEBUG\VC141.PDB
E:\RáC\C++\BFS2\BFS2\DEBUG\VC141.IDB
E:\RáC\C++\BFS2\BFS2\DEBUG\BFS2.OBJ
